M48
INCH,TZ
T1C0.0236
T2C0.0315
T3C0.0394
T4C0.0512
T5C0.0591
T6C0.1260
%
G90
G05
T1
X3583Y17165
X3583Y16654
X3583Y16142
X4094Y17165
X4094Y16654
X4094Y16142
X4606Y17165
X4606Y16654
X4606Y16142
X5709Y14469
X5709Y13976
X6201Y14469
X6201Y13976
X6693Y14469
X6693Y13976
X7185Y14469
X7185Y13976
T3
X6657Y11614
X7657Y11614
X6654Y9646
X7654Y9646
X6654Y7677
X7654Y7677
T4
X9646Y11614
X9646Y9646
X9646Y7677
T6
X1181Y1181
X26378Y1181
X1181Y18504
X26378Y18504
T1
X620Y16201G85X404Y16201
G05
X620Y13445G85X404Y13445
G05
X1575Y15856G85X1575Y15758
G05
X1575Y13888G85X1575Y13789
G05
T2
X22441Y11319G85X22441Y11594
G05
X23917Y7795G85X23642Y7795
G05
X24311Y8819G85X24035Y8819
G05
X25374Y11654G85X25098Y11654
G05
X26890Y9705G85X26890Y9980
G05
X669Y9980G85X669Y9705
G05
X2185Y8031G85X2461Y8031
G05
X3248Y10866G85X3524Y10866
G05
X3642Y11890G85X3917Y11890
G05
X5118Y8366G85X5118Y8091
G05
T5
X12008Y16732G85X12008Y17126
G05
X13780Y16732G85X13780Y17126
G05
X15551Y16732G85X15551Y17126
G05
T0
M30
